<?xml version="1.0" encoding="utf-8"?>
<!-- Generator: Adobe Illustrator 23.0.4, SVG Export Plug-In . SVG Version: 6.00 Build 0)  -->
<svg version="1.1" id="OBJECTS" xmlns="http://www.w3.org/2000/svg" xmlns:xlink="http://www.w3.org/1999/xlink" x="0px" y="0px"
	 viewBox="0 0 100 100" style="enable-background:new 0 0 100 100;" xml:space="preserve">
<style type="text/css">
	.st0{opacity:0.8;fill:#FFFFFF;enable-background:new    ;}
	.st1{fill:url(#SVGID_1_);}
</style>
<g>
	<circle class="st0" cx="50" cy="50" r="50"/>
	
		<linearGradient id="SVGID_1_" gradientUnits="userSpaceOnUse" x1="-1027.8663" y1="-164.0417" x2="-995.3899" y2="-164.0417" gradientTransform="matrix(-1 0 0 -1 -959.3 -114)">
		<stop  offset="0" style="stop-color:#3B6855"/>
		<stop  offset="1" style="stop-color:#559684"/>
	</linearGradient>
	<path class="st1" d="M38.7,78.8c-0.7,0-1.3-0.3-1.8-0.8c-1-1-1-2.7,0-3.7L61.2,50L36.8,25.7c-1-1-1-2.7,0-3.7c1-1,2.7-1,3.7,0
		l28.2,28L40.5,78C40,78.5,39.3,78.8,38.7,78.8z"/>
</g>
</svg>
